[gd_scene load_steps=10 format=2]

[ext_resource path="res://Mob.gd" type="Script" id=1]
[ext_resource path="res://dodge_assets/dodge_assets/art/enemyFlyingAlt_1.png" type="Texture" id=2]
[ext_resource path="res://dodge_assets/dodge_assets/art/enemyFlyingAlt_2.png" type="Texture" id=3]
[ext_resource path="res://dodge_assets/dodge_assets/art/enemyWalking_1.png" type="Texture" id=4]
[ext_resource path="res://dodge_assets/dodge_assets/art/enemyWalking_2.png" type="Texture" id=5]
[ext_resource path="res://dodge_assets/dodge_assets/art/enemySwimming_1.png" type="Texture" id=6]
[ext_resource path="res://dodge_assets/dodge_assets/art/enemySwimming_2.png" type="Texture" id=7]

[sub_resource type="SpriteFrames" id=1]
animations = [ {
"frames": [ ExtResource( 2 ), ExtResource( 3 ) ],
"loop": true,
"name": "fly",
"speed": 5.0
}, {
"frames": [ ExtResource( 4 ), ExtResource( 5 ) ],
"loop": true,
"name": "walk",
"speed": 4.0
}, {
"frames": [ ExtResource( 6 ), ExtResource( 7 ) ],
"loop": true,
"name": "swim",
"speed": 3.0
} ]

[sub_resource type="CapsuleShape2D" id=2]
radius = 35.2995
height = 24.0704

[node name="Mob" type="RigidBody2D"]
collision_mask = 0
gravity_scale = 0.0
script = ExtResource( 1 )

[node name="AnimatedSprite" type="AnimatedSprite" parent="."]
scale = Vector2( 0.75, 0.75 )
frames = SubResource( 1 )
animation = "walk"

[node name="Visibility" type="VisibilityNotifier2D" parent="."]

[node name="CollisionShape2D" type="CollisionShape2D" parent="."]
rotation = 1.53819
shape = SubResource( 2 )
[connection signal="screen_exited" from="Visibility" to="." method="_on_Visibility_screen_exited"]
