[gd_resource type="DynamicFont" load_steps=2 format=2]

[ext_resource path="res://fonts/poco/Poco.ttf" type="DynamicFontData" id=1]

[resource]
size = 72
use_mipmaps = true
extra_spacing_top = -18
extra_spacing_bottom = 2
font_data = ExtResource( 1 )
