Engine/Binaries/Win64/UE4Game.pdb	2019-06-08T18:57:21.858Z
Engine/Content/SlateDebug/Fonts/LastResort.tps	2019-06-08T19:02:01.085Z
Engine/Content/SlateDebug/Fonts/LastResort.ttf	2019-06-08T19:02:01.099Z
Engine/Binaries/ThirdParty/PhysX3/Win64/VS2015/PxFoundationPROFILE_x64.pdb	2019-06-08T18:49:38.047Z
Engine/Binaries/ThirdParty/PhysX3/Win64/VS2015/PxPvdSDKPROFILE_x64.pdb	2019-06-08T18:49:38.082Z
Engine/Binaries/ThirdParty/PhysX3/Win64/VS2015/PhysX3PROFILE_x64.pdb	2019-06-08T18:49:36.205Z
Engine/Binaries/ThirdParty/PhysX3/Win64/VS2015/PhysX3CookingPROFILE_x64.pdb	2019-06-08T18:49:28.657Z
Engine/Binaries/ThirdParty/PhysX3/Win64/VS2015/PhysX3CommonPROFILE_x64.pdb	2019-06-08T18:49:28.266Z
Engine/Binaries/ThirdParty/PhysX3/Win64/VS2015/APEX_ClothingPROFILE_x64.pdb	2019-06-08T18:48:57.232Z
Engine/Binaries/ThirdParty/PhysX3/Win64/VS2015/APEX_LegacyPROFILE_x64.pdb	2019-06-08T18:49:10.587Z
Engine/Binaries/ThirdParty/PhysX3/Win64/VS2015/ApexFrameworkPROFILE_x64.pdb	2019-06-08T18:49:16.553Z
Engine/Binaries/ThirdParty/PhysX3/Win64/VS2015/NvClothPROFILE_x64.pdb	2019-06-08T18:49:17.348Z
